Identifying High-Need High Cost Patients within the Fee-For-Service Medicare Benefeciaries Population - Part 1
…
group1_cor_table <- 
cor(y = waterfall_state$TOT_MDCR_STDZD_PYMT_PC, waterfall_state, method = "pearson", use = "pairwise.complete.obs") %>%
  data.frame()

group1_cor_table$name <-  rownames(group1_cor_table)
rownames(group1_cor_table) <- rep(NULL,107)
names(group1_cor_table) <- c("cor_","name")
group1_cor_table %<>% mutate(name_ = name, .before = 1)
group1_cor_table <- group1_cor_table[,c(1:2)]
group1_cor_table %>%
  tibble() %>%
  arrange(desc(cor_)) %>%
  print(n=5) #correlation table

# A tibble: 107 × 2
  name_                      cor_
  <chr>                     <dbl>
1 TOT_MDCR_STDZD_PYMT_PC    1    
2 IP_MDCR_STDZD_PYMT_PC     0.889
3 SNF_MDCR_STDZD_PYMT_PC    0.760
4 PRCDRS_MDCR_STDZD_PYMT_PC 0.732
5 BENES_ER_VISITS_PCT       0.727
# ℹ 102 more rows
…
